digraph g{
graph [bgcolor=white, overlap=scale]
node [fixedsize=true, shape=circle, fillcolor=gray, width=0.5, height=0.5, fontsize=5, style=filled, labelfloat=true]
edge [len=10,splines=line,color=white,arrowhead=vee]
	"30:b5:c2:3e:50:8d" [width=1.1165,height=1.1165,fillcolor=tan1,fontcolor=black,fontsize=7.8155]
	"4c:bd:8f:cc:c1:4a" [width=1.145,height=1.145,fillcolor=tan1,fontcolor=black,fontsize=8.015]
	"b8:27:eb:8d:bd:15" [width=1.2429999999999999,height=1.2429999999999999,fillcolor=tan1,fontcolor=black,fontsize=8.700999999999999]
	"cc:29:f5:32:53:22" [width=1.004,height=1.004,fillcolor=lightskyblue,fontcolor=black,fontsize=7.0280000000000005]
	"30:b5:c2:3e:50:8d"->"b8:27:eb:8d:bd:15"[color=tan1, style=bold];
	"4c:bd:8f:cc:c1:4a"->"30:b5:c2:3e:50:8d"[color=tan1, style=bold];
	"b8:27:eb:8d:bd:15"->"30:b5:c2:3e:50:8d"[color=tan1, style=bold];
	"b8:27:eb:8d:bd:15"->"b8:27:eb:8d:bd:15"[color=lightskyblue, style=bold];
	"30:b5:c2:3e:50:8d"->"cc:29:f5:32:53:22"[color=lightskyblue, style=bold];
	"cc:29:f5:32:53:22"->"cc:29:f5:32:53:22"[color=gray, style=bold];
	"cc:29:f5:32:53:22"->"30:b5:c2:3e:50:8d"[color=gray, style=bold];
}