digraph g{
graph [bgcolor=white, overlap=scale]
node [fixedsize=true, shape=circle, fillcolor=gray, width=0.5, height=0.5, fontsize=5, style=filled, labelfloat=true]
edge [len=10,splines=line,color=white,arrowhead=vee]
	"00:51:ed:39:68:e2" [width=1.0005833333333334,height=1.0005833333333334,fillcolor=lightskyblue,fontcolor=black,fontsize=7.004083333333334]
	"00:b3:62:18:3a:6b" [width=1.001,height=1.001,fillcolor=lightskyblue,fontcolor=black,fontsize=7.007]
	"00:fa:21:1a:74:bb" [width=1.0006666666666666,height=1.0006666666666666,fillcolor=lightskyblue,fontcolor=black,fontsize=7.004666666666666]
	"04:d6:aa:8a:cd:06" [width=1.0001666666666666,height=1.0001666666666666,fillcolor=lightskyblue,fontcolor=black,fontsize=7.001166666666666]
	"28:16:a8:4c:d6:6f" [width=1.0008333333333332,height=1.0008333333333332,fillcolor=lightskyblue,fontcolor=black,fontsize=7.0058333333333325]
	"28:56:5a:90:cb:5b" [width=1.001,height=1.001,fillcolor=lightskyblue,fontcolor=black,fontsize=7.007]
	"28:a0:2b:99:bc:82" [width=1.0020833333333334,height=1.0020833333333334,fillcolor=lightskyblue,fontcolor=black,fontsize=7.014583333333334]
	"2c:fd:ab:ee:a4:7c" [width=1.0001666666666666,height=1.0001666666666666,fillcolor=lightskyblue,fontcolor=black,fontsize=7.001166666666666]
	"30:b5:c2:3e:50:8d" [width=1.6872500000000001,height=1.6872500000000001,fillcolor=crimson,fontcolor=black,fontsize=11.81075]
	"38:71:de:62:b7:2f" [width=1.0006666666666666,height=1.0006666666666666,fillcolor=lightskyblue,fontcolor=black,fontsize=7.004666666666666]
	"38:ba:f8:8e:2d:08" [width=1.0015,height=1.0015,fillcolor=lightskyblue,fontcolor=black,fontsize=7.0105]
	"4c:bd:8f:cc:c1:4a" [width=1.0263333333333333,height=1.0263333333333333,fillcolor=tan1,fontcolor=black,fontsize=7.184333333333333]
	"54:27:58:c9:da:91" [width=1.0005833333333334,height=1.0005833333333334,fillcolor=lightskyblue,fontcolor=black,fontsize=7.004083333333334]
	"60:83:73:71:cd:29" [width=1.002,height=1.002,fillcolor=lightskyblue,fontcolor=black,fontsize=7.014]
	"8c:85:90:a1:75:a6" [width=1.0020833333333334,height=1.0020833333333334,fillcolor=lightskyblue,fontcolor=black,fontsize=7.014583333333334]
	"8c:85:90:d0:15:0f" [width=1.0009166666666667,height=1.0009166666666667,fillcolor=lightskyblue,fontcolor=black,fontsize=7.0064166666666665]
	"94:87:e0:4b:47:1b" [width=1.0000833333333334,height=1.0000833333333334,fillcolor=lightskyblue,fontcolor=black,fontsize=7.000583333333334]
	"94:b8:6d:cf:fd:96" [width=1.0014166666666666,height=1.0014166666666666,fillcolor=lightskyblue,fontcolor=black,fontsize=7.009916666666666]
	"98:3b:8f:9c:dd:35" [width=1.0211666666666668,height=1.0211666666666668,fillcolor=tan1,fontcolor=black,fontsize=7.1481666666666674]
	"b8:27:eb:8d:bd:15" [width=1.0425,height=1.0425,fillcolor=crimson,fontcolor=black,fontsize=7.297499999999999]
	"cc:29:f5:32:53:22" [width=1.0054166666666666,height=1.0054166666666666,fillcolor=lightskyblue,fontcolor=black,fontsize=7.037916666666666]
	"d0:b1:28:34:00:f1" [width=1.0001666666666666,height=1.0001666666666666,fillcolor=lightskyblue,fontcolor=black,fontsize=7.001166666666666]
	"d4:90:9c:8f:0c:7e" [width=1.0049166666666667,height=1.0049166666666667,fillcolor=lightskyblue,fontcolor=black,fontsize=7.034416666666667]
	"e4:02:9b:c3:0f:b4" [width=1.00025,height=1.00025,fillcolor=lightskyblue,fontcolor=black,fontsize=7.00175]
	"4c:bd:8f:cc:c1:4a"->"30:b5:c2:3e:50:8d"[color=tan1, style=bold];
	"30:b5:c2:3e:50:8d"->"b8:27:eb:8d:bd:15"[color=tan1, style=bold];
	"b8:27:eb:8d:bd:15"->"30:b5:c2:3e:50:8d"[color=tan1, style=bold];
	"b8:27:eb:8d:bd:15"->"b8:27:eb:8d:bd:15"[color=lightskyblue, style=bold];
	"30:b5:c2:3e:50:8d"->"cc:29:f5:32:53:22"[color=gray, style=bold];
	"cc:29:f5:32:53:22"->"cc:29:f5:32:53:22"[color=lightskyblue, style=bold];
	"cc:29:f5:32:53:22"->"30:b5:c2:3e:50:8d"[color=lightskyblue, style=bold];
	"30:b5:c2:3e:50:8d"->"d0:b1:28:34:00:f1"[color=tan1, style=bold];
	"d0:b1:28:34:00:f1"->"d0:b1:28:34:00:f1"[color=gray, style=bold];
	"d0:b1:28:34:00:f1"->"30:b5:c2:3e:50:8d"[color=gray, style=bold];
	"30:b5:c2:3e:50:8d"->"60:83:73:71:cd:29"[color=tan1, style=bold];
	"60:83:73:71:cd:29"->"60:83:73:71:cd:29"[color=lightskyblue, style=bold];
	"60:83:73:71:cd:29"->"30:b5:c2:3e:50:8d"[color=lightskyblue, style=bold];
	"30:b5:c2:3e:50:8d"->"00:fa:21:1a:74:bb"[color=crimson, style=bold];
	"00:fa:21:1a:74:bb"->"00:fa:21:1a:74:bb"[color=gray, style=bold];
	"4c:bd:8f:cc:c1:4a"->"00:fa:21:1a:74:bb"[color=gray, style=bold];
	"00:fa:21:1a:74:bb"->"30:b5:c2:3e:50:8d"[color=gray, style=bold];
	"30:b5:c2:3e:50:8d"->"28:a0:2b:99:bc:82"[color=tan1, style=bold];
	"28:a0:2b:99:bc:82"->"28:a0:2b:99:bc:82"[color=lightskyblue, style=bold];
	"28:a0:2b:99:bc:82"->"30:b5:c2:3e:50:8d"[color=lightskyblue, style=bold];
	"30:b5:c2:3e:50:8d"->"8c:85:90:d0:15:0f"[color=tan1, style=bold];
	"8c:85:90:d0:15:0f"->"8c:85:90:d0:15:0f"[color=gray, style=bold];
	"8c:85:90:d0:15:0f"->"30:b5:c2:3e:50:8d"[color=gray, style=bold];
	"8c:85:90:d0:15:0f"->"cc:29:f5:32:53:22"[color=gray, style=bold];
	"30:b5:c2:3e:50:8d"->"d4:90:9c:8f:0c:7e"[color=lightskyblue, style=bold];
	"d4:90:9c:8f:0c:7e"->"d4:90:9c:8f:0c:7e"[color=lightskyblue, style=bold];
	"d4:90:9c:8f:0c:7e"->"30:b5:c2:3e:50:8d"[color=lightskyblue, style=bold];
	"8c:85:90:d0:15:0f"->"28:a0:2b:99:bc:82"[color=gray, style=bold];
	"30:b5:c2:3e:50:8d"->"2c:fd:ab:ee:a4:7c"[color=tan1, style=bold];
	"2c:fd:ab:ee:a4:7c"->"30:b5:c2:3e:50:8d"[color=gray, style=bold];
	"00:51:ed:39:68:e2"->"30:b5:c2:3e:50:8d"[color=gray, style=bold];
	"4c:bd:8f:cc:c1:4a"->"00:51:ed:39:68:e2"[color=lightskyblue, style=bold];
	"30:b5:c2:3e:50:8d"->"28:16:a8:4c:d6:6f"[color=lightskyblue, style=bold];
	"28:16:a8:4c:d6:6f"->"28:16:a8:4c:d6:6f"[color=gray, style=bold];
	"30:b5:c2:3e:50:8d"->"28:56:5a:90:cb:5b"[color=lightskyblue, style=bold];
	"28:56:5a:90:cb:5b"->"28:56:5a:90:cb:5b"[color=gray, style=bold];
	"28:56:5a:90:cb:5b"->"30:b5:c2:3e:50:8d"[color=gray, style=bold];
	"4c:bd:8f:cc:c1:4a"->"28:56:5a:90:cb:5b"[color=gray, style=bold];
	"00:51:ed:39:68:e2"->"28:56:5a:90:cb:5b"[color=gray, style=bold];
	"28:16:a8:4c:d6:6f"->"30:b5:c2:3e:50:8d"[color=gray, style=bold];
	"e4:02:9b:c3:0f:b4"->"30:b5:c2:3e:50:8d"[color=gray, style=bold];
	"30:b5:c2:3e:50:8d"->"98:3b:8f:9c:dd:35"[color=tan1, style=bold];
	"98:3b:8f:9c:dd:35"->"30:b5:c2:3e:50:8d"[color=lightskyblue, style=bold];
	"98:3b:8f:9c:dd:35"->"98:3b:8f:9c:dd:35"[color=lightskyblue, style=bold];
	"4c:bd:8f:cc:c1:4a"->"98:3b:8f:9c:dd:35"[color=lightskyblue, style=bold];
	"00:51:ed:39:68:e2"->"98:3b:8f:9c:dd:35"[color=gray, style=bold];
	"98:3b:8f:9c:dd:35"->"00:00:00:00:00:00"[color=gray, style=bold];
	"98:3b:8f:9c:dd:35"->"00:51:ed:39:68:e2"[color=lightskyblue, style=bold];
	"98:3b:8f:9c:dd:35"->"4c:bd:8f:cc:c1:4a"[color=lightskyblue, style=bold];
	"28:56:5a:90:cb:5b"->"98:3b:8f:9c:dd:35"[color=gray, style=bold];
	"00:b3:62:18:3a:6b"->"b8:8a:60:97:92:53"[color=gray, style=bold];
	"00:b3:62:18:3a:6b"->"30:b5:c2:3e:50:8d"[color=gray, style=bold];
	"30:b5:c2:3e:50:8d"->"54:27:58:c9:da:91"[color=crimson, style=bold];
	"54:27:58:c9:da:91"->"30:b5:c2:3e:50:8d"[color=lightskyblue, style=bold];
	"98:3b:8f:9c:dd:35"->"28:56:5a:90:cb:5b"[color=lightskyblue, style=bold];
	"30:b5:c2:3e:50:8d"->"b8:8a:60:97:92:53"[color=lightskyblue, style=bold];
	"30:b5:c2:3e:50:8d"->"38:71:de:62:b7:2f"[color=crimson, style=bold];
	"38:71:de:62:b7:2f"->"38:71:de:62:b7:2f"[color=gray, style=bold];
	"38:71:de:62:b7:2f"->"30:b5:c2:3e:50:8d"[color=gray, style=bold];
	"38:ba:f8:8e:2d:08"->"38:ba:f8:8e:2d:08"[color=gray, style=bold];
	"38:ba:f8:8e:2d:08"->"00:00:00:00:00:00"[color=gray, style=bold];
	"30:b5:c2:3e:50:8d"->"38:ba:f8:8e:2d:08"[color=tan1, style=bold];
	"38:ba:f8:8e:2d:08"->"30:b5:c2:3e:50:8d"[color=lightskyblue, style=bold];
	"30:b5:c2:3e:50:8d"->"00:00:00:00:00:00"[color=tan1, style=bold];
	"04:d6:aa:8a:cd:06"->"30:b5:c2:3e:50:8d"[color=gray, style=bold];
	"30:b5:c2:3e:50:8d"->"94:b8:6d:cf:fd:96"[color=gray, style=bold];
	"94:b8:6d:cf:fd:96"->"30:b5:c2:3e:50:8d"[color=lightskyblue, style=bold];
	"94:b8:6d:cf:fd:96"->"94:b8:6d:cf:fd:96"[color=gray, style=bold];
	"4c:bd:8f:cc:c1:4a"->"94:b8:6d:cf:fd:96"[color=gray, style=bold];
	"30:b5:c2:3e:50:8d"->"94:87:e0:4b:47:1b"[color=tan1, style=bold];
	"94:87:e0:4b:47:1b"->"30:b5:c2:3e:50:8d"[color=gray, style=bold];
	"30:b5:c2:3e:50:8d"->"8c:85:90:a1:75:a6"[color=tan1, style=bold];
	"8c:85:90:a1:75:a6"->"8c:85:90:a1:75:a6"[color=lightskyblue, style=bold];
	"8c:85:90:a1:75:a6"->"30:b5:c2:3e:50:8d"[color=lightskyblue, style=bold];
	"8c:85:90:a1:75:a6"->"b8:8a:60:97:92:53"[color=gray, style=bold];
}